Wav.(air)[A]
4220.0662349999884100
4222.2266600450793703
4223.6681727282739303
4224.6297281389206546
4225.2710083458205190
4225.6986366541605094
4225.9837702841987266
4226.1738807493002241
4226.3006305622375294
4226.3851346614264912
4226.4414726049608362
4226.4790320684205653
4226.5040720816004978
4226.5291123914830678
4226.5346732021089338
4226.5402340273667505
4226.5457948672583370
4226.5513557217827838
4226.5569165909391813
4226.5624774747284391
4226.5680383731514667
4226.5735992862073545
4226.5791602138951930
4226.5847211562168013
4226.5902821131721794
4226.5958430847604177
4226.6014040709815163
4226.6069650718363846
4226.6125260873250227
4226.6180871174465210
4226.6236481622017891
4226.6292092215899174
4226.6347702956127250
4226.6403313842683929
4226.6458924875578305
4226.6514536054819473
4226.6570147380398339
4226.6625758852305808
4226.6681370470560068
4226.6736982235152027
4226.6792594146090778
4226.6848206203367226
4226.6903818406981372
4226.6959430756942311
4226.7015043253250042
4226.7070655895895470
4226.7126268684887691
4226.7181881620217609
4226.7237494701912510
4226.7293107929936014
4226.7348721304306309
4226.7404334825041587
4226.7459948492105468
4226.7515562305525236
4226.7571176265291797
4226.7626790371414245
4226.7682404623874390
4226.7738019022690423
4226.7793633567862344
4226.7849248259390151
4226.7904863097264752
4226.7960478081486144
4226.8016093212063424
4226.8071708489005687
4226.8127323912294742
4226.8182939481939684
4226.8238555197940514
4226.8294171060297231
4226.8349787069009835
4226.8405403224087422
4226.8461019525511801
4226.8516635973310258
4226.8572252567455507
4226.8627869307956644
4226.8683486194831858
4226.8739103228062959
4226.8794720407649947
4226.8850337733611013
4226.8905955205918872
4226.8961572824609902
4226.9017190589647726
4226.9072808501059626
4226.9128426558827414
4226.9184044762978374
4226.9239663113485221
4226.9295281610357051
4226.9545735124938801
4226.9796191607510991
4227.0171881896449122
4227.0735429851665685
4227.1580779959731444
4227.2848868520150063
4227.4751144020538050
4227.7604878301326607
4228.1886202194882571
4228.8309814119447765
4229.7948892456352041
4231.2415751921153060
4233.4134605622339222
